%YAML 1.1
%TAG !u! tag:unity3d.com,2011:
--- !u!114 &11400000
MonoBehaviour:
  m_ObjectHideFlags: 0
  m_CorrespondingSourceObject: {fileID: 0}
  m_PrefabInstance: {fileID: 0}
  m_PrefabAsset: {fileID: 0}
  m_GameObject: {fileID: 0}
  m_Enabled: 1
  m_EditorHideFlags: 0
  m_Script: {fileID: 2108210716, guid: 89f0137620f6af44b9ba852b4190e64e, type: 3}
  m_Name: GoldGradient
  m_EditorClassIdentifier: 
  topLeft: {r: 1, g: 0.78039217, b: 0.34117648, a: 1}
  topRight: {r: 1, g: 0.7803922, b: 0.34117648, a: 1}
  bottomLeft: {r: 0.9716981, g: 0.6051618, b: 0.03208439, a: 1}
  bottomRight: {r: 0.9725491, g: 0.6039216, b: 0.03137255, a: 1}
