%YAML 1.1
%TAG !u! tag:unity3d.com,2011:
--- !u!1045 &1
EditorBuildSettings:
  m_ObjectHideFlags: 0
  serializedVersion: 2
  m_Scenes:
  - enabled: 1
    path: Assets/Scenes/Splash.unity
    guid: ba3ce3ad50937ab4e9fbe0f00709a1fb
  - enabled: 1
    path: Assets/Scenes/Menu.unity
    guid: 2255d50855e20124fb3205387a2e75d9
  - enabled: 1
    path: Assets/Scenes/Playback.unity
    guid: 9acc5ce97e8a87f4481c6d676f84ebfd
  - enabled: 1
    path: Assets/Scenes/Scorecard.unity
    guid: df6f0ab9e742b234281a271d8d73cb6f
  m_configObjects: {}
